{
  "project_info": {
    "project_number": "846911135574",
    "firebase_url": "https://gcp-tutorials-6ac15.firebaseio.com",
    "project_id": "gcp-tutorials-6ac15",
    "storage_bucket": "gcp-tutorials-6ac15.appspot.com"
  },
  "client": [
    {
      "client_info": {
        "mobilesdk_app_id": "1:846911135574:android:d8c444a32539180fd880f7",
        "android_client_info": {
          "package_name": "com.example.appxuts"
        }
      },
      "oauth_client": [
        {
          "client_id": "846911135574-b6l3vbfegucuaivafsqeau3jlh782ol5.apps.googleusercontent.com",
          "client_type": 1,
          "android_info": {
            "package_name": "com.example.appxuts",
            "certificate_hash": "00bb9a695bb7d7f011eaa7f25a3a9e0daa470ccb"
          }
        },
        {
          "client_id": "846911135574-itjtdl6m970bsvjrmvptqpmn2mcl9856.apps.googleusercontent.com",
          "client_type": 3
        }
      ],
      "api_key": [
        {
          "current_key": "AIzaSyDpTrNkxLlpsbsQOGK5Dr2B985C37sv2Sc"
        }
      ],
      "services": {
        "appinvite_service": {
          "other_platform_oauth_client": [
            {
              "client_id": "846911135574-itjtdl6m970bsvjrmvptqpmn2mcl9856.apps.googleusercontent.com",
              "client_type": 3
            }
          ]
        }
      }
    }
  ],
  "configuration_version": "1"
}